127.0.0.1 - - [23/Jul/2015:18:08:22 +0900] "GET / HTTP/1.1" 404 1019
0:0:0:0:0:0:0:1 - - [23/Jul/2015:18:08:50 +0900] "GET /SampleServlet02/Index HTTP/1.1" 404 1061
0:0:0:0:0:0:0:1 - - [23/Jul/2015:18:08:50 +0900] "GET /favicon.ico HTTP/1.1" 404 1041
0:0:0:0:0:0:0:1 - - [23/Jul/2015:18:09:00 +0900] "GET /SampleServlet02/SampleServlet02/Index HTTP/1.1" 404 1093
0:0:0:0:0:0:0:1 - - [23/Jul/2015:18:09:29 +0900] "GET /SampleServlet02/sample02/Index HTTP/1.1" 404 1079
0:0:0:0:0:0:0:1 - - [23/Jul/2015:18:10:27 +0900] "GET /SampleServlet02/SampleSservlet02/Index HTTP/1.1" 404 1095
0:0:0:0:0:0:0:1 - - [23/Jul/2015:18:10:39 +0900] "GET /SampleServlet02/SampleSservlet02 HTTP/1.1" 404 1083
0:0:0:0:0:0:0:1 - - [23/Jul/2015:18:10:43 +0900] "GET /SampleServlet02/SampleSservlet02/ HTTP/1.1" 404 1085
0:0:0:0:0:0:0:1 - - [23/Jul/2015:18:11:05 +0900] "GET /SampleServlet02/Index HTTP/1.1" 404 1061
0:0:0:0:0:0:0:1 - - [23/Jul/2015:18:11:09 +0900] "GET /SampleServlet02/Index/ HTTP/1.1" 404 1063
0:0:0:0:0:0:0:1 - - [23/Jul/2015:18:11:51 +0900] "GET /SampleServlet02/SampleServlet02/Index/ HTTP/1.1" 404 1095
0:0:0:0:0:0:0:1 - - [23/Jul/2015:18:11:57 +0900] "GET /SampleSservlet02/SampleServlet02/Index/ HTTP/1.1" 404 1097
0:0:0:0:0:0:0:1 - - [23/Jul/2015:18:12:16 +0900] "GET /SampleSservlet02/SampleServlet02/Index/ HTTP/1.1" 404 1097
0:0:0:0:0:0:0:1 - - [23/Jul/2015:18:12:36 +0900] "GET /SampleSservlet02/SampleSservlet02/Index/ HTTP/1.1" 404 1099
0:0:0:0:0:0:0:1 - - [23/Jul/2015:18:12:40 +0900] "GET /SampleSservlet02/SampleSservlet02/Index HTTP/1.1" 404 1097
0:0:0:0:0:0:0:1 - - [23/Jul/2015:18:12:50 +0900] "GET /SampleSservlet02/SampleSservlet02 HTTP/1.1" 404 1085
0:0:0:0:0:0:0:1 - - [23/Jul/2015:18:12:55 +0900] "GET /SampleSservlet02/SampleSservlet02/ HTTP/1.1" 404 1087
127.0.0.1 - - [23/Jul/2015:18:21:12 +0900] "GET / HTTP/1.1" 404 1019
0:0:0:0:0:0:0:1 - - [23/Jul/2015:18:21:12 +0900] "GET /SampleServlet02/SampleServlet02/ HTTP/1.1" 404 1083
0:0:0:0:0:0:0:1 - - [23/Jul/2015:18:23:23 +0900] "GET /SampleServlet02/SampleServlet02/ HTTP/1.1" 404 1083
0:0:0:0:0:0:0:1 - - [23/Jul/2015:18:23:27 +0900] "GET /SampleServlet02/SampleServlet02/Index HTTP/1.1" 404 1093
0:0:0:0:0:0:0:1 - - [23/Jul/2015:18:23:30 +0900] "GET /SampleServlet02/SampleServlet02/Index HTTP/1.1" 404 1093
0:0:0:0:0:0:0:1 - - [23/Jul/2015:18:24:00 +0900] "GET /SampleServlet02/Index HTTP/1.1" 200 6
